…
3.  create table showing the most popular name among male children over
    time.

``` r
# the most popular name among male children over time
popular_baby_names_df %>%
  filter(gender =="MALE") %>%
  relocate(year_of_birth, rank, childs_first_name) %>%
  group_by(year_of_birth) %>%
  arrange(rank, year_of_birth) %>%
  filter(rank == 1)
```

    ## # A tibble: 24 × 6
    ## # Groups:   year_of_birth [6]
    ##    year_of_birth  rank childs_first_name gender ethnicity                  count
    ##            <dbl> <dbl> <chr>             <chr>  <chr>                      <dbl>
    ##  1          2011     1 ETHAN             MALE   ASIAN AND PACIFIC ISLANDER   177
    ##  2          2011     1 JAYDEN            MALE   BLACK NON HISPANIC           184
    ##  3          2011     1 JAYDEN            MALE   HISPANIC                     426
    ##  4          2011     1 MICHAEL           MALE   WHITE NON HISPANIC           292
    ##  5          2012     1 RYAN              MALE   ASIAN AND PACIFIC ISLANDER   197
    ##  6          2012     1 JAYDEN            MALE   BLACK NON HISPANIC           171
    ##  7          2012     1 JAYDEN            MALE   HISPANIC                     364
    ##  8          2012     1 JOSEPH            MALE   WHITE NON HISPANIC           300
    ##  9          2013     1 Jayden            MALE   ASIAN AND PACIFIC ISLANDER   220
    ## 10          2013     1 Ethan             MALE   BLACK NON HISPANIC           146
    ## # … with 14 more rows
…
